%!Adobe-FontList 1.20
%Locale:0x409

%BeginFont
Handler:DirectoryHandler
FontType:TrueType
FontName:Compass
FamilyName:Compass
StyleName:Medium
FullName:Compass
MenuName:Compass
StyleBits:0
WritingScript:Roman
OutlineFileName:C:\Users\Sofia\Google Drive (info@polyorbite.ca)\PolyOrbite Work Folder\3- Administration\3- Public Relations\9 - Materiel Visuel\2- Products\4- Sponsorship Package\Current Version\A\Document fonts\Compass (1).ttf
DataFormat:sfntData
hasSVG:no
VariableFontType:NonVariableFont
FileLength:38052
FileModTime:1543120219
WeightClass:500
WidthClass:5
AngleClass:0
NameArray:0,Mac,4,Compass
NameArray:0,Win,1,Compass
%EndFont

%BeginFont
Handler:DirectoryHandler
FontType:TrueType
FontName:CompassBold
FamilyName:Compass
StyleName:Bold
FullName:Compass Bold
MenuName:Compass
StyleBits:2
WritingScript:Roman
OutlineFileName:C:\Users\Sofia\Google Drive (info@polyorbite.ca)\PolyOrbite Work Folder\3- Administration\3- Public Relations\9 - Materiel Visuel\2- Products\4- Sponsorship Package\Current Version\A\Document fonts\CompassBold.ttf
DataFormat:sfntData
hasSVG:no
VariableFontType:NonVariableFont
FileLength:38120
FileModTime:1543120219
WeightClass:700
WidthClass:5
AngleClass:0
NameArray:0,Mac,4,Compass Bold
NameArray:0,Win,1,Compass
%EndFont

%BeginFont
Handler:DirectoryHandler
FontType:TrueType
FontName:CompassLight
FamilyName:Compass LT
StyleName:Regular
FullName:Compass LT
MenuName:Compass LT
StyleBits:0
WritingScript:Roman
OutlineFileName:C:\Users\Sofia\Google Drive (info@polyorbite.ca)\PolyOrbite Work Folder\3- Administration\3- Public Relations\9 - Materiel Visuel\2- Products\4- Sponsorship Package\Current Version\A\Document fonts\CompassLight.ttf
DataFormat:sfntData
hasSVG:no
VariableFontType:NonVariableFont
FileLength:38280
FileModTime:1543120222
WeightClass:400
WidthClass:5
AngleClass:0
NameArray:0,Mac,4,Compass LT
NameArray:0,Win,1,Compass LT
%EndFont

%BeginFont
Handler:DirectoryHandler
FontType:Type1
FontName:MinionPro-Regular
FamilyName:Minion Pro
StyleName:Regular
FullName:Minion Pro
MenuName:Minion Pro
StyleBits:0
WritingScript:Roman
OutlineFileName:C:\Users\Sofia\Google Drive (info@polyorbite.ca)\PolyOrbite Work Folder\3- Administration\3- Public Relations\9 - Materiel Visuel\2- Products\4- Sponsorship Package\Current Version\A\Document fonts\MinionPro-Regular.otf
DataFormat:sfntData
UsesStandardEncoding:yes
isCFF:yes
hasSVG:no
VariableFontType:NonVariableFont
FileLength:218640
FileModTime:1543120224
WeightClass:400
WidthClass:5
AngleClass:0
DesignSize:110
NameArray:0,Mac,4,Minion Pro
NameArray:0,Win,1,Minion Pro
%EndFont

%BeginFont
Handler:DirectoryHandler
FontType:TrueType
FontName:NeuropolXFree
FamilyName:Neuropol X Free
StyleName:Regular
FullName:Neuropol X Free
MenuName:Neuropol X Free
StyleBits:0
WritingScript:Roman
OutlineFileName:C:\Users\Sofia\Google Drive (info@polyorbite.ca)\PolyOrbite Work Folder\3- Administration\3- Public Relations\9 - Materiel Visuel\2- Products\4- Sponsorship Package\Current Version\A\Document fonts\neuropol_x_free.ttf
DataFormat:sfntData
hasSVG:no
VariableFontType:NonVariableFont
FileLength:45872
FileModTime:1543120223
WeightClass:400
WidthClass:5
AngleClass:0
NameArray:0,Mac,18,Neuropol X Free
NameArray:0,Mac,4,Neuropol X Free
NameArray:0,Win,1,Neuropol X Free
NameArray:0,Win,16,Neuropol X Free
%EndFont

